----------STARTING JOB----------
Process 2 inside extract_data()
I am process 2 and I filtered 73301 records
Process 2 inside get_counts()
Process 6 inside extract_data()
I am process 6 and I filtered 73298 records
Process 6 inside get_counts()
Process 5 inside extract_data()
I am process 5 and I filtered 73287 records
Process 5 inside get_counts()
Process 7 inside extract_data()
I am process 7 and I filtered 73297 records
Process 7 inside get_counts()
Process 4 inside extract_data()
I am process 4 and I filtered 73295 records
Process 4 inside get_counts()
Process 1 inside extract_data()
I am process 1 and I filtered 73296 records
Process 1 inside get_counts()
Process 3 inside extract_data()
I am process 3 and I filtered 73293 records
Process 3 inside get_counts()
Word scores loaded in process 0
Grid cordinates loaded in process 0
Process 0 inside extract_data()
I am process 0 and I filtered 73303 records
Process 0 inside get_counts()
Data received from 1
Process 1 executed in 66.4070475101471 seconds: Extraction: 65.05814671516418, Calculation: 1.3489007949829102
Process 0 inside aggregate_counts()
Data received from 2
Process 2 executed in 63.920947551727295 seconds: Extraction: 62.557594776153564, Calculation: 1.3633527755737305
Process 0 inside aggregate_counts()
Data received from 3
Process 3 executed in 66.83729910850525 seconds: Extraction: 65.4948377609253, Calculation: 1.342461347579956
Process 0 inside aggregate_counts()
Data received from 4
Process 4 executed in 65.68412375450134 seconds: Extraction: 64.3340573310852, Calculation: 1.3500664234161377
Process 0 inside aggregate_counts()
Data received from 5
Process 5 executed in 65.67966938018799 seconds: Extraction: 64.33388781547546, Calculation: 1.3457815647125244
Process 0 inside aggregate_counts()
Data received from 6
Process 6 executed in 65.67203569412231 seconds: Extraction: 64.33386731147766, Calculation: 1.3381683826446533
Process 0 inside aggregate_counts()
Data received from 7
Process 7 executed in 65.68326449394226 seconds: Extraction: 64.33409333229065, Calculation: 1.3491711616516113
Process 0 inside aggregate_counts()
Master executed in 65.70238137245178 seconds: Extraction: 64.33495783805847, Calculation: 1.3674235343933105
Aggregated counts in time = 66.84251594543457
---------------------------------------------------------
Cell	#Total Tweets	#Overall Sentiment Score	#Average Sentiment Score
A1	2752	751	0.27289244186046513
A2	4904	4181	0.8525693311582382
A3	5824	2724	0.4677197802197802
A4	381	55	0.14435695538057744
B1	21232	11759	0.5538338357196684
B2	107386	32295	0.3007375263069674
B3	34494	20411	0.5917260972922828
B4	6643	5764	0.867680264940539
C1	10530	7209	0.6846153846153846
C2	246828	192072	0.7781613107102922
C3	69901	41715	0.5967725783608246
C4	26097	19622	0.7518871900984787
C5	5581	2649	0.47464612076688767
D3	16220	8050	0.4963008631319359
D4	16536	9708	0.5870827285921626
D5	4705	3767	0.8006376195536663
---------------------------------------------------------

real	1m9.250s
user	0m0.015s
sys	0m0.012s
----------JOB ENDED----------
